First steps in spatial data handling and visualization with {dplyr} and {tmap}
…
---

### Read text file with coordinates

- Read a csv, txt, xls, ... with the adapted package 
    + {readr}, {readxl}, ...

```r
cafes_bars <- read_csv("data/cafes_bars.csv")
cafes_bars
```

```
# A tibble: 13,467 x 6
   amenity timestamp           user                    id    lng   lat
   <chr>   <dttm>              <chr>                <dbl>  <dbl> <dbl>
 1 bar     2014-05-25 15:41:23 Xspirt56        2880087248  0.416  46.8
 2 bar     2011-06-05 21:55:41 ndecaris        1313547128 -0.466  46.3
 3 bar     2011-02-22 14:19:50 Syl             1166456913  5.71   45.2
 4 bar     2013-09-16 12:42:04 Thibaut75011    2460347252  2.37   48.9
 5 bar     2012-11-17 05:48:19 Agibi           2017656504  0.129  49.5
 6 bar     2015-01-12 19:19:18 woodpeck_repair 2273314756  4.84   45.8
 7 bar     2013-08-02 20:51:21 Olivier82       2405180491  1.48   44.2
 8 bar     2013-05-08 16:04:23 Benat Iza       2296077080 -1.79   43.4
 9 bar     2015-05-09 17:49:03 Weslape         3507311321  7.76   48.6
10 bar     2012-08-18 12:49:59 lttnono         1871307487 -4.07   48.2
# … with 13,457 more rows
```
…
```r
departements_l93
```

```
Simple feature collection with 96 features and 11 fields
geometry type:  MULTIPOLYGON
dimension:      XY
bbox:           xmin: 99217.1 ymin: 6049646 xmax: 1242417 ymax: 7110480
projected CRS:  RGF93_Lambert_93
# A tibble: 96 x 12
   ID_GEOFLA CODE_DEPT NOM_DEPT CODE_CHF NOM_CHF X_CHF_LIEU Y_CHF_LIEU
   <chr>     <chr>     <chr>    <chr>    <chr>        <int>      <int>
 1 DEPARTEM… 39        JURA     300      LONS-L…     895198    6622537
 2 DEPARTEM… 42        LOIRE    218      SAINT-…     808646    6482549
 3 DEPARTEM… 76        SEINE-M… 540      ROUEN       562355    6928721
 4 DEPARTEM… 89        YONNE    024      AUXERRE     742447    6744261
 5 DEPARTEM… 68        HAUT-RH… 066      COLMAR     1024125    6784581
 6 DEPARTEM… 28        EURE-ET… 085      CHARTR…     588211    6817344
 7 DEPARTEM… 10        AUBE     387      TROYES      779954    6800379
 8 DEPARTEM… 55        MEUSE    029      BAR-LE…     859261    6854586
 9 DEPARTEM… 61        ORNE     001      ALENCON     484935    6818334
10 DEPARTEM… 67        BAS-RHIN 482      STRASB…    1050377    6840891
# … with 86 more rows, and 5 more variables: X_CENTROID <int>,
#   Y_CENTROID <int>, CODE_REG <chr>, NOM_REG <chr>, geometry <MULTIPOLYGON
#   [m]>
```
…
```r
departements_l93
```

```
Simple feature collection with 96 features and 11 fields
geometry type:  MULTIPOLYGON
dimension:      XY
bbox:           xmin: 99217.1 ymin: 6049646 xmax: 1242417 ymax: 7110480
projected CRS:  RGF93_Lambert_93
# A tibble: 96 x 12
   ID_GEOFLA CODE_DEPT NOM_DEPT CODE_CHF NOM_CHF X_CHF_LIEU Y_CHF_LIEU
   <chr>     <chr>     <chr>    <chr>    <chr>        <int>      <int>
 1 DEPARTEM… 39        JURA     300      LONS-L…     895198    6622537
 2 DEPARTEM… 42        LOIRE    218      SAINT-…     808646    6482549
 3 DEPARTEM… 76        SEINE-M… 540      ROUEN       562355    6928721
 4 DEPARTEM… 89        YONNE    024      AUXERRE     742447    6744261
 5 DEPARTEM… 68        HAUT-RH… 066      COLMAR     1024125    6784581
 6 DEPARTEM… 28        EURE-ET… 085      CHARTR…     588211    6817344
 7 DEPARTEM… 10        AUBE     387      TROYES      779954    6800379
 8 DEPARTEM… 55        MEUSE    029      BAR-LE…     859261    6854586
 9 DEPARTEM… 61        ORNE     001      ALENCON     484935    6818334
10 DEPARTEM… 67        BAS-RHIN 482      STRASB…    1050377    6840891
# … with 86 more rows, and 5 more variables: X_CENTROID <int>,
#   Y_CENTROID <int>, CODE_REG <chr>, NOM_REG <chr>, geometry <MULTIPOLYGON
#   [m]>
```
…
```r
restaurants %>% 
  inner_join(france_l93)
```
]
.pull-right[
*france_l93 (extract)*

```
# A tibble: 96 x 2
  department                    geometry
  <chr>               <MULTIPOLYGON [m]>
1 JURA       (((886244.2 6641236, 88619…
2 LOIRE      (((764370.3 6544751, 76438…
# … with 94 more rows
```
…
